{
  "projectDefinition": {
    "name": "FulfillmentPattern",
    "definitionJSONVersion": {
      "major": 1,
      "minor": 0,
      "patch": 0
    },
    "description": "description",
    "URL": "URL",
    "contactEMail": "contactEMail",
    "outputFormat": "outputFormat",
    "version": {
      "major": 1,
      "minor": 0,
      "patch": 0
    },
    "serviceDefinitionList": [
      {
        "name": "RequestStore",
        "operationDefinitionList": [
          {
            "name": "CreateRecord",
            "parameterGroupDefinitionList": [
              {
                "name": "service",
                "id": "service",
                "parameterDefinitionList": [
                  {
                    "id": "storeURL",
                    "type": "InputText",
                    "questionText": "StoreURL",
                    "mandatory": true,
                    "inputText": {
                      "defaultValue": "generalstore.nl.abnamro.com"
                    }
                  },
                  {
                    "id": "storePort",
                    "type": "InputText",
                    "questionText": "StorePort",
                    "mandatory": true,
                    "inputText": {
                      "defaultValue": 8081
                    }
                  }
                ]
              }
            ],
            "codeSnippetDefinitionList": [
              {
                "name": "BW6",
                "codeTemplate": "codeTemplate",
                "base64encoded": false
              },
              {
                "name": "pom",
                "codeTemplate": "codeTemplate",
                "base64encoded": false
              }
            ]
          },
          {
            "name": "GetRecord",
            "parameterGroupDefinitionList": [
              {
                "id": "service",
                "name": "service",
                "parameterDefinitionList": [
                  {
                    "id": "storeURL",
                    "type": "InputText",
                    "questionText": "StoreURL",
                    "mandatory": true,
                    "inputText": {
                      "defaultValue": "generalstore.nl.abnamro.com"
                    }
                  },
                  {
                    "id": "storePort",
                    "type": "InputText",
                    "questionText": "StorePort",
                    "mandatory": true,
                    "inputText": {
                      "defaultValue": 8081
                    }
                  }
                ]
              }
            ],
            "codeSnippetDefinitionList": [
              {
                "name": "BW6",
                "codeTemplate": "codeTemplate",
                "base64encoded": false
              },
              {
                "name": "pom",
                "codeTemplate": "codeTemplate",
                "base64encoded": false
              }
            ]
          }
        ]
      },
      {
        "name": "CRM",
        "operationDefinitionList": [
          {
            "name": "CreateCase",
            "parameterGroupDefinitionList": [
              {
                "name": "Service",
                "id": "service",
                "parameterDefinitionList": [
                  {
                    "id": "CRMURL",
                    "type": "InputText",
                    "questionText": "Provide the URL of the CRM instance",
                    "mandatory": true,
                    "inputText": {
                      "defaultValue": "crm.nl.abnamro.com"
                    }
                  },
                  {
                    "id": "CRMPort",
                    "type": "InputText",
                    "questionText": "Provide the port of the CRM instance",
                    "mandatory": true,
                    "inputText": {
                      "defaultValue": 8081
                    }
                  }
                ]
              }
            ],
            "codeSnippetDefinitionList": [
              {
                "name": "BW6",
                "codeTemplate": "codeTemplate",
                "base64encoded": false
              },
              {
                "name": "pom",
                "codeTemplate": "codeTemplate",
                "base64encoded": false
              }
            ]
          },
          {
            "name": "UpdateCase",
            "parameterGroupDefinitionList": [
              {
                "name": "Service",
                "id": "service",
                "parameterDefinitionList": [
                  {
                    "id": "CRMURL",
                    "type": "InputText",
                    "questionText": "Provide the URL of the CRM instance",
                    "mandatory": true,
                    "inputText": {
                      "defaultValue": "crm.nl.abnamro.com"
                    }
                  },
                  {
                    "id": "CRMPort",
                    "type": "InputText",
                    "questionText": "Provide the port of the CRM instance",
                    "mandatory": true,
                    "inputText": {
                      "defaultValue": 8081
                    }
                  }
                ]
              }
            ],
            "codeSnippetDefinitionList": [
              {
                "name": "BW6",
                "codeTemplate": "codeTemplate",
                "base64encoded": false
              },
              {
                "name": "pom",
                "codeTemplate": "codeTemplate",
                "base64encoded": false
              }
            ]
          },
          {
            "name": "DeleteCase",
            "parameterGroupDefinitionList": [
              {
                "name": "Service",
                "id": "service",
                "parameterDefinitionList": [
                  {
                    "id": "CRMURL",
                    "type": "InputText",
                    "questionText": "Provide the URL of the CRM instance",
                    "mandatory": true,
                    "inputText": {
                      "defaultValue": "crm.nl.abnamro.com"
                    }
                  },
                  {
                    "id": "CRMPort",
                    "type": "InputText",
                    "questionText": "Provide the port of the CRM instance",
                    "mandatory": true,
                    "inputText": {
                      "defaultValue": 8081
                    }
                  }
                ]
              }
            ],
            "codeSnippetDefinitionList": [
              {
                "name": "BW6",
                "codeTemplate": "codeTemplate",
                "base64encoded": false
              },
              {
                "name": "pom",
                "codeTemplate": "codeTemplate",
                "base64encoded": false
              }
            ]
          },
          {
            "name": "UpdateCase",
            "parameterGroupDefinitionList": [
              {
                "name": "Service",
                "id": "service",
                "parameterDefinitionList": [
                  {
                    "id": "CRMURL",
                    "type": "InputText",
                    "questionText": "Provide the URL of the CRM instance",
                    "mandatory": true,
                    "inputText": {
                      "defaultValue": "crm.nl.abnamro.com"
                    }
                  },
                  {
                    "id": "CRMPort",
                    "type": "InputText",
                    "questionText": "Provide the port of the CRM instance",
                    "mandatory": true,
                    "inputText": {
                      "defaultValue": 8081
                    }
                  }
                ]
              }
            ],
            "codeSnippetDefinitionList": [
              {
                "name": "BW6",
                "codeTemplate": "codeTemplate",
                "base64encoded": false
              },
              {
                "name": "pom",
                "codeTemplate": "codeTemplate",
                "base64encoded": false
              }
            ]
          },
          {
            "name": "SetStatus",
            "parameterGroupDefinitionList": [
              {
                "name": "Service",
                "id": "service",
                "parameterDefinitionList": [
                  {
                    "id": "CRMURL",
                    "type": "InputText",
                    "questionText": "Provide the URL of the CRM instance",
                    "mandatory": true,
                    "inputText": {
                      "defaultValue": "crm.nl.abnamro.com"
                    }
                  },
                  {
                    "id": "CRMPort",
                    "type": "InputText",
                    "questionText": "Provide the port of the CRM instance",
                    "mandatory": true,
                    "inputText": {
                      "defaultValue": 8081
                    }
                  }
                ]
              }
            ],
            "codeSnippetDefinitionList": [
              {
                "name": "BW6",
                "codeTemplate": "codeTemplate",
                "base64encoded": false
              },
              {
                "name": "pom",
                "codeTemplate": "codeTemplate",
                "base64encoded": false
              }
            ]
          }
        ]
      },
      {
        "name": "TrackAndTrace",
        "operationDefinitionList": [
          {
            "name": "CreateRequest",
            "codeSnippetDefinitionList": [
              {
                "name": "BW6",
                "codeTemplate": "codeTemplate",
                "base64encoded": false
              },
              {
                "name": "pom",
                "codeTemplate": "codeTemplate",
                "base64encoded": false
              }
            ]
          },
          {
            "name": "AddStep",
            "codeSnippetDefinitionList": [
              {
                "name": "BW6",
                "codeTemplate": "codeTemplate",
                "base64encoded": false
              },
              {
                "name": "pom",
                "codeTemplate": "codeTemplate",
                "base64encoded": false
              }
            ]
          },
          {
            "name": "CloseRequest",
            "codeSnippetDefinitionList": [
              {
                "name": "BW6",
                "codeTemplate": "codeTemplate",
                "base64encoded": false
              },
              {
                "name": "pom",
                "codeTemplate": "codeTemplate",
                "base64encoded": false
              }
            ]
          }
        ]
      },
      {
        "name": "NodeServices",
        "operationDefinitionList": [
          {
            "name": "Application",
            "parameterGroupDefinitionList": [
              {
                "name": "generic",
                "id": "generic",
                "parameterDefinitionList": [
                  {
                    "id": "BWProjectName",
                    "type": "InputText",
                    "questionText": "The name of the generated BWProject",
                    "mandatory": true,
                    "inputText": {
                      "defaultValue": ""
                    }
                  },
                  {
                    "id": "startTimeButton",
                    "type": "InputButton",
                    "questionText": "Fetch start times",
                    "mandatory": false,
                    "inputButton": {
                      "actionID": "calculateRunTime"
                    }
                  },
                  {
                    "id": "startTimeSelectionBox",
                    "type": "InputSelectBox",
                    "questionText": "Select start time",
                    "mandatory": true,
                    "inputSelectBox": {
                      "selectorPath": "lookuplists.runtime",
                      "postAction": ""
                    }
                  }
                ]
              },
              {
                "name": "EMS",
                "id": "EMS",
                "parameterDefinitionList": [
                  {
                    "id": "connectionFactory",
                    "type": "InputText",
                    "questionText": "Provide the name of the ConnectionFactory to be used to fetch messages when the Batch run starts",
                    "mandatory": true,
                    "inputText": {
                      "defaultValue": ""
                    }
                  },
                  {
                    "id": "queueName",
                    "type": "InputText",
                    "questionText": "Provide the name of the queue name to be used to fetch messages when the Batch run starts",
                    "mandatory": true,
                    "inputText": {
                      "defaultValue": ""
                    }
                  },
                  {
                    "id": "emsUserID",
                    "type": "InputText",
                    "questionText": "Provide the userID to be used to connect the EMS server",
                    "mandatory": true,
                    "inputText": {
                      "defaultValue": ""
                    }
                  },
                  {
                    "id": "emsPassword",
                    "type": "InputText",
                    "questionText": "Provide the password to be used to connect the EMS server",
                    "mandatory": true,
                    "inputText": {
                      "defaultValue": ""
                    }
                  }
                ]
              }
            ],
            "codeSnippetDefinitionList": [
              {
                "name": "BW6",
                "codeTemplate": "<?xml version=\"1.0\" encoding=\"UTF-8\"?>\r\n<bpws:process exitOnStandardFault=\"no\"\r\n    name=\"${generic_BWProjectName}.module.MainProcess\"\r\n    suppressJoinFailure=\"yes\"\r\n    targetNamespace=\"http://xmlns.example.com/20190420063433\"\r\n    xmlns:bpws=\"http://docs.oasis-open.org/wsbpel/2.0/process/executable\"\r\n    xmlns:info=\"http://www.tibco.com/bw/process/info\"\r\n    xmlns:ns=\"http://www.tibco.com/pe/EngineTypes\"\r\n    xmlns:ns0=\"http://tns.tibco.com/bw/activity/timer/xsd/output\"\r\n    xmlns:sca=\"http://docs.oasis-open.org/ns/opencsa/sca/200912\"\r\n    xmlns:sca-bpel=\"http://docs.oasis-open.org/ns/opencsa/sca-bpel/200801\"\r\n    xmlns:tibex=\"http://www.tibco.com/bpel/2007/extensions\"\r\n    xmlns:tibprop=\"http://ns.tibco.com/bw/property\" xmlns:xsd=\"http://www.w3.org/2001/XMLSchema\">\r\n    <tibex:Types>\r\n        <xs:schema attributeFormDefault=\"unqualified\"\r\n            elementFormDefault=\"qualified\"\r\n            targetNamespace=\"http://www.tibco.com/pe/EngineTypes\"\r\n            xmlns:tns=\"http://www.tibco.com/pe/EngineTypes\" xmlns:xs=\"http://www.w3.org/2001/XMLSchema\">\r\n            <xs:complexType block=\"extension restriction\"\r\n                final=\"extension restriction\" name=\"ErrorReport\">\r\n                <xs:sequence>\r\n                    <xs:element\r\n                        block=\"extension restriction substitution\"\r\n                        form=\"unqualified\" name=\"StackTrace\" type=\"xs:string\"/>\r\n                    <xs:element\r\n                        block=\"extension restriction substitution\"\r\n                        form=\"unqualified\" name=\"Msg\" type=\"xs:string\"/>\r\n                    <xs:element\r\n                        block=\"extension restriction substitution\"\r\n                        form=\"unqualified\" name=\"FullClass\" type=\"xs:string\"/>\r\n                    <xs:element\r\n                        block=\"extension restriction substitution\"\r\n                        form=\"unqualified\" name=\"Class\" type=\"xs:string\"/>\r\n                    <xs:element\r\n                        block=\"extension restriction substitution\"\r\n                        form=\"unqualified\" name=\"ProcessStack\" type=\"xs:string\"/>\r\n                    <xs:element\r\n                        block=\"extension restriction substitution\"\r\n                        form=\"unqualified\" minOccurs=\"0\" name=\"MsgCode\" type=\"xs:string\"/>\r\n                    <xs:element\r\n                        block=\"extension restriction substitution\"\r\n                        form=\"unqualified\" minOccurs=\"0\" name=\"Data\" type=\"tns:anydata\"/>\r\n                </xs:sequence>\r\n            </xs:complexType>\r\n            <xs:complexType block=\"extension restriction\"\r\n                final=\"extension restriction\" name=\"OptionalErrorReport\">\r\n                <xs:sequence>\r\n                    <xs:element\r\n                        block=\"extension restriction substitution\"\r\n                        form=\"unqualified\" minOccurs=\"0\"\r\n                        name=\"StackTrace\" type=\"xs:string\"/>\r\n                    <xs:element\r\n                        block=\"extension restriction substitution\"\r\n                        form=\"unqualified\" minOccurs=\"0\" name=\"Msg\" type=\"xs:string\"/>\r\n                    <xs:element\r\n                        block=\"extension restriction substitution\"\r\n                        form=\"unqualified\" minOccurs=\"0\"\r\n                        name=\"FullClass\" type=\"xs:string\"/>\r\n                    <xs:element\r\n                        block=\"extension restriction substitution\"\r\n                        form=\"unqualified\" minOccurs=\"0\" name=\"Class\" type=\"xs:string\"/>\r\n                    <xs:element\r\n                        block=\"extension restriction substitution\"\r\n                        form=\"unqualified\" minOccurs=\"0\"\r\n                        name=\"ProcessStack\" type=\"xs:string\"/>\r\n                    <xs:element\r\n                        block=\"extension restriction substitution\"\r\n                        form=\"unqualified\" minOccurs=\"0\" name=\"MsgCode\" type=\"xs:string\"/>\r\n                    <xs:element\r\n                        block=\"extension restriction substitution\"\r\n                        form=\"unqualified\" minOccurs=\"0\" name=\"Data\" type=\"tns:anydata\"/>\r\n                </xs:sequence>\r\n            </xs:complexType>\r\n            <xs:complexType block=\"extension restriction\"\r\n                final=\"extension restriction\" name=\"FaultDetail\">\r\n                <xs:sequence>\r\n                    <xs:element\r\n                        block=\"extension restriction substitution\"\r\n                        form=\"unqualified\" name=\"ActivityName\" type=\"xs:string\"/>\r\n                    <xs:element\r\n                        block=\"extension restriction substitution\"\r\n                        form=\"unqualified\" minOccurs=\"0\" name=\"Data\" type=\"tns:anydata\"/>\r\n                    <xs:element\r\n                        block=\"extension restriction substitution\"\r\n                        form=\"unqualified\" name=\"Msg\" type=\"xs:string\"/>\r\n                    <xs:element\r\n                        block=\"extension restriction substitution\"\r\n                        form=\"unqualified\" name=\"MsgCode\" type=\"xs:string\"/>\r\n                    <xs:element\r\n                        block=\"extension restriction substitution\"\r\n                        form=\"unqualified\" name=\"ProcessStack\" type=\"xs:string\"/>\r\n                    <xs:element\r\n                        block=\"extension restriction substitution\"\r\n                        form=\"unqualified\" name=\"StackTrace\" type=\"xs:string\"/>\r\n                    <xs:element\r\n                        block=\"extension restriction substitution\"\r\n                        form=\"unqualified\" name=\"FullClass\" type=\"xs:string\"/>\r\n                    <xs:element\r\n                        block=\"extension restriction substitution\"\r\n                        form=\"unqualified\" name=\"Class\" type=\"xs:string\"/>\r\n                </xs:sequence>\r\n            </xs:complexType>\r\n            <xs:complexType block=\"extension restriction\"\r\n                final=\"extension restriction\" name=\"ProcessContext\">\r\n                <xs:sequence>\r\n                    <xs:element\r\n                        block=\"extension restriction substitution\"\r\n                        form=\"unqualified\" name=\"JobId\" type=\"xs:string\"/>\r\n                    <xs:element\r\n                        block=\"extension restriction substitution\"\r\n                        form=\"unqualified\" name=\"ApplicationName\" type=\"xs:string\"/>\r\n                    <xs:element\r\n                        block=\"extension restriction substitution\"\r\n                        form=\"unqualified\" name=\"EngineName\" type=\"xs:string\"/>\r\n                    <xs:element\r\n                        block=\"extension restriction substitution\"\r\n                        form=\"unqualified\" name=\"ProcessInstanceId\" type=\"xs:string\"/>\r\n                    <xs:element\r\n                        block=\"extension restriction substitution\"\r\n                        form=\"unqualified\" minOccurs=\"0\"\r\n                        name=\"CustomJobId\" type=\"xs:string\"/>\r\n                    <!--xs:element name=\"RestartedFromCheckpoint\" form=\"unqualified\" block=\"extension restriction substitution\" type=\"xs:boolean\"/-->\r\n                    <xs:element\r\n                        block=\"extension restriction substitution\"\r\n                        form=\"unqualified\" maxOccurs=\"unbounded\"\r\n                        minOccurs=\"0\" name=\"TrackingInfo\" type=\"xs:string\"/>\r\n                </xs:sequence>\r\n            </xs:complexType>\r\n            <xs:complexType block=\"extension restriction\"\r\n                final=\"extension restriction\" name=\"anydata\">\r\n                <xs:sequence>\r\n                    <xs:any namespace=\"##any\" processContents=\"lax\"/>\r\n                </xs:sequence>\r\n            </xs:complexType>\r\n            <xs:element block=\"extension restriction substitution\"\r\n                final=\"extension restriction\" name=\"OptionalErrorReport\" type=\"tns:OptionalErrorReport\"/>\r\n            <xs:element block=\"extension restriction substitution\"\r\n                final=\"extension restriction\" name=\"ErrorReport\" type=\"tns:ErrorReport\"/>\r\n            <xs:element block=\"extension restriction substitution\"\r\n                final=\"extension restriction\" name=\"FaultDetail\" type=\"tns:FaultDetail\"/>\r\n            <xs:element block=\"extension restriction substitution\"\r\n                final=\"extension restriction\" name=\"ProcessContext\" type=\"tns:ProcessContext\"/>\r\n            <xs:element block=\"extension restriction substitution\"\r\n                final=\"extension restriction\" name=\"CorrelationValue\" type=\"xs:string\"/>\r\n        </xs:schema>\r\n        <schema attributeFormDefault=\"unqualified\"\r\n            elementFormDefault=\"unqualified\"\r\n            targetNamespace=\"http://schemas.tibco.com/bw/pe/plugin/5.0/exceptions\"\r\n            version=\"\" xmlns=\"http://www.w3.org/2001/XMLSchema\" xmlns:tns=\"http://schemas.tibco.com/bw/pe/plugin/5.0/exceptions\">\r\n            <complexType name=\"ActivityExceptionType\">\r\n                <sequence>\r\n                    <element name=\"msg\" type=\"string\"/>\r\n                    <element minOccurs=\"0\" name=\"msgCode\" type=\"string\"/>\r\n                </sequence>\r\n            </complexType>\r\n            <element name=\"ActivityException\" type=\"tns:ActivityExceptionType\"/>\r\n            <complexType name=\"ActivityTimedOutExceptionType\">\r\n                <complexContent>\r\n                    <extension base=\"tns:ActivityExceptionType\"/>\r\n                </complexContent>\r\n            </complexType>\r\n            <element name=\"ActivityTimedOutException\" type=\"tns:ActivityTimedOutExceptionType\"/>\r\n            <complexType name=\"DuplicateKeyExceptionType\">\r\n                <complexContent>\r\n                    <extension base=\"tns:ActivityExceptionType\">\r\n                        <sequence>\r\n                            <element name=\"duplicateKey\" type=\"string\"/>\r\n                            <element minOccurs=\"0\" name=\"previousJobID\" type=\"string\"/>\r\n                        </sequence>\r\n                    </extension>\r\n                </complexContent>\r\n            </complexType>\r\n            <element name=\"DuplicateKeyException\" type=\"tns:DuplicateKeyExceptionType\"/>\r\n        </schema>\r\n        <xs:schema attributeFormDefault=\"unqualified\"\r\n            elementFormDefault=\"qualified\"\r\n            targetNamespace=\"http://tns.tibco.com/bw/activity/timer/xsd/output\"\r\n            xmlns:tns=\"http://tns.tibco.com/bw/activity/timer/xsd/output\" xmlns:xs=\"http://www.w3.org/2001/XMLSchema\">\r\n            <xs:complexType name=\"TimerOutputSchemaType\">\r\n                <xs:sequence>\r\n                    <xs:element form=\"unqualified\" name=\"Now\" type=\"xs:long\"/>\r\n                    <xs:element form=\"unqualified\" name=\"Hour\" type=\"xs:int\"/>\r\n                    <xs:element form=\"unqualified\" name=\"Minute\" type=\"xs:int\"/>\r\n                    <xs:element form=\"unqualified\" name=\"Second\" type=\"xs:int\"/>\r\n                    <xs:element form=\"unqualified\" name=\"Week\" type=\"xs:int\"/>\r\n                    <xs:element form=\"unqualified\" name=\"Month\" type=\"xs:int\"/>\r\n                    <xs:element form=\"unqualified\" name=\"Year\" type=\"xs:int\"/>\r\n                    <xs:element form=\"unqualified\" name=\"Date\" type=\"xs:date\"/>\r\n                    <xs:element form=\"unqualified\" name=\"Time\" type=\"xs:string\"/>\r\n                    <xs:element form=\"unqualified\" name=\"DayOfMonth\" type=\"xs:int\"/>\r\n                </xs:sequence>\r\n            </xs:complexType>\r\n            <xs:element name=\"TimerOutputSchema\" type=\"tns:TimerOutputSchemaType\"/>\r\n        </xs:schema>\r\n    </tibex:Types>\r\n    <tibex:ProcessInfo callable=\"false\" createdBy=\"Administrator\"\r\n        createdOn=\"Sat Apr 20 06:34:33 PDT 2019\" description=\"\"\r\n        extraErrorVars=\"true\" modifiers=\"public\"\r\n        productVersion=\"6.5.0 HF6 V121 2019-03-01\" scalable=\"true\"\r\n        singleton=\"true\" stateless=\"false\" type=\"IT\"/>\r\n    <tibex:ProcessInterface context=\"\" input=\"\" output=\"\"/>\r\n    <tibex:ProcessTemplateConfigurations/>\r\n    <notation:Diagram measurementUnit=\"Pixel\" type=\"BWProcess\"\r\n        xmlns:bwnotation=\"http://tns.tibco.com/bw/runtime/BWNotation\"\r\n        xmlns:notation=\"http://www.eclipse.org/gmf/runtime/1.0.2/notation\" xmlns:xsi=\"http://www.w3.org/2001/XMLSchema-instance\">\r\n        <children type=\"2001\">\r\n            <children type=\"5001\">\r\n                <element href=\"//0/@process\"/>\r\n            </children>\r\n            <children type=\"3001\">\r\n                <styles xsi:type=\"notation:SortingStyle\"/>\r\n                <styles xsi:type=\"notation:FilteringStyle\"/>\r\n                <element href=\"//0/@process\"/>\r\n            </children>\r\n            <children type=\"3002\">\r\n                <styles xsi:type=\"notation:SortingStyle\"/>\r\n                <styles xsi:type=\"notation:FilteringStyle\"/>\r\n                <element href=\"//0/@process\"/>\r\n            </children>\r\n            <children type=\"3003\">\r\n                <styles xsi:type=\"notation:SortingStyle\"/>\r\n                <styles xsi:type=\"notation:FilteringStyle\"/>\r\n                <element href=\"//0/@process\"/>\r\n            </children>\r\n            <children type=\"3004\">\r\n                <children type=\"4018\">\r\n                    <children type=\"3018\">\r\n                        <children type=\"4020\">\r\n                            <children type=\"3020\">\r\n                                <children type=\"4005\">\r\n                                    <children type=\"3007\">\r\n                                    <children type=\"4002 bw.generalactivities.timer\">\r\n                                    <children type=\"4017\">\r\n                                    <styles\r\n                                    fontName=\"Segoe UI\"\r\n                                    lineColor=\"0\" xsi:type=\"notation:ShapeStyle\"/>\r\n                                    <element href=\"//0/@process/@activity/@activity/@activities.0\"/>\r\n                                    <layoutConstraint xsi:type=\"notation:Bounds\"/>\r\n                                    </children>\r\n                                    <children type=\"4017\">\r\n                                    <styles\r\n                                    fontName=\"Segoe UI\"\r\n                                    lineColor=\"0\" xsi:type=\"notation:ShapeStyle\"/>\r\n                                    <element href=\"//0/@process/@activity/@activity/@activities.0\"/>\r\n                                    <layoutConstraint xsi:type=\"notation:Bounds\"/>\r\n                                    </children>\r\n                                    <children type=\"4017\">\r\n                                    <styles\r\n                                    fontName=\"Segoe UI\"\r\n                                    lineColor=\"0\" xsi:type=\"notation:ShapeStyle\"/>\r\n                                    <element href=\"//0/@process/@activity/@activity/@activities.0\"/>\r\n                                    <layoutConstraint xsi:type=\"notation:Bounds\"/>\r\n                                    </children>\r\n                                    <children type=\"4017\">\r\n                                    <styles\r\n                                    fontName=\"Segoe UI\"\r\n                                    lineColor=\"0\" xsi:type=\"notation:ShapeStyle\"/>\r\n                                    <element href=\"//0/@process/@activity/@activity/@activities.0\"/>\r\n                                    <layoutConstraint xsi:type=\"notation:Bounds\"/>\r\n                                    </children>\r\n                                    <styles fontName=\"Segoe UI\"\r\n                                    lineColor=\"0\" xsi:type=\"notation:ShapeStyle\"/>\r\n                                    <styles\r\n                                    backgroundColor=\"16777215\"\r\n                                    gradientEndColor=\"50431\"\r\n                                    gradientStartColor=\"16777215\" xsi:type=\"bwnotation:BackgroundStyle\"/>\r\n                                    <element href=\"//0/@process/@activity/@activity/@activities.0\"/>\r\n                                    <layoutConstraint\r\n                                    height=\"40\" width=\"40\"\r\n                                    x=\"5\"\r\n                                    xsi:type=\"notation:Bounds\" y=\"67\"/>\r\n                                    </children>\r\n\t\t\t\t\t\t\t\t\t<#list childInputLists.ScopeGraphical as curScopeGraphical>${curScopeGraphical}</#list>\r\n                                    <styles xsi:type=\"notation:DrawerStyle\"/>\r\n                                    <styles xsi:type=\"notation:SortingStyle\"/>\r\n                                    <styles xsi:type=\"notation:FilteringStyle\"/>\r\n                                    <element href=\"//0/@process/@activity/@activity\"/>\r\n                                    </children>\r\n                                    <styles fontName=\"Segoe UI\"\r\n                                    lineColor=\"0\" xsi:type=\"notation:ShapeStyle\"/>\r\n                                    <styles backgroundColor=\"16777215\"\r\n                                    gradientEndColor=\"50431\"\r\n                                    gradientStartColor=\"16777215\" xsi:type=\"bwnotation:BackgroundStyle\"/>\r\n                                    <styles xsi:type=\"bwnotation:ResizingStyle\"/>\r\n                                    <element href=\"//0/@process/@activity/@activity\"/>\r\n                                    <layoutConstraint height=\"384\"\r\n                                    width=\"${(500+systemVariables.nrOfNodeDescendants*150)?c}\" xsi:type=\"notation:Bounds\"/>\r\n                                </children>\r\n                                <styles xsi:type=\"notation:SortingStyle\"/>\r\n                                <styles xsi:type=\"notation:FilteringStyle\"/>\r\n                                <element href=\"//0/@process/@activity\"/>\r\n                            </children>\r\n                            <styles fontName=\"Segoe UI\" lineColor=\"0\" xsi:type=\"notation:ShapeStyle\"/>\r\n                            <styles xsi:type=\"bwnotation:BackgroundStyle\"/>\r\n                            <styles xsi:type=\"bwnotation:ResizingStyle\"/>\r\n                            <element href=\"//0/@process/@activity\"/>\r\n                            <layoutConstraint height=\"365\" width=\"${(450+systemVariables.nrOfNodeDescendants*150)?c}\" xsi:type=\"notation:Bounds\"/>\r\n                        </children>\r\n                        <styles xsi:type=\"notation:SortingStyle\"/>\r\n                        <styles xsi:type=\"notation:FilteringStyle\"/>\r\n                        <element href=\"//0/@process/@activity\"/>\r\n                    </children>\r\n                    <styles fontName=\"Segoe UI\" lineColor=\"0\" xsi:type=\"notation:ShapeStyle\"/>\r\n                    <styles xsi:type=\"bwnotation:BackgroundStyle\"/>\r\n                    <styles xsi:type=\"bwnotation:ResizingStyle\"/>\r\n                    <element href=\"//0/@process/@activity\"/>\r\n                    <layoutConstraint height=\"409\" width=\"${(450+systemVariables.nrOfNodeDescendants*150)?c}\" xsi:type=\"notation:Bounds\" x=\"1\" y=\"1\"/>\r\n                </children>\r\n                <styles xsi:type=\"notation:SortingStyle\"/>\r\n                <styles xsi:type=\"notation:FilteringStyle\"/>\r\n                <element href=\"//0/@process\"/>\r\n            </children>\r\n            <styles fontName=\"Segoe UI\" lineColor=\"0\" xsi:type=\"notation:ShapeStyle\"/>\r\n            <element href=\"//0/@process\"/>\r\n            <layoutConstraint height=\"460\" width=\"${(850+systemVariables.nrOfNodeDescendants*150)?c}\" xsi:type=\"notation:Bounds\"/>\r\n        </children>\r\n        <styles xsi:type=\"notation:DiagramStyle\"/>\r\n        <element href=\"//0\"/>\r\n\t\t<#list childInputLists.ConnectorGraphical as curConnectorGraphical>${curConnectorGraphical}</#list>\r\n    </notation:Diagram>\r\n    <bpws:variables>\r\n        <bpws:variable element=\"ns:ProcessContext\"\r\n            name=\"_processContext\" sca-bpel:internal=\"true\"/>\r\n        <bpws:variable element=\"ns0:TimerOutputSchema\" name=\"Timer\" sca-bpel:internal=\"true\"/>\r\n    </bpws:variables>\r\n    <bpws:extensions>\r\n        <bpws:extension mustUnderstand=\"no\" namespace=\"http://www.eclipse.org/gmf/runtime/1.0.2/notation\"/>\r\n        <bpws:extension mustUnderstand=\"no\" namespace=\"http://www.tibco.com/bw/process/info\"/>\r\n        <bpws:extension mustUnderstand=\"no\" namespace=\"http://docs.oasis-open.org/ns/opencsa/sca-bpel/200801\"/>\r\n        <bpws:extension mustUnderstand=\"no\" namespace=\"http://docs.oasis-open.org/ns/opencsa/sca/200912\"/>\r\n        <bpws:extension mustUnderstand=\"no\" namespace=\"http://ns.tibco.com/bw/property\"/>\r\n        <bpws:extension mustUnderstand=\"no\" namespace=\"http://www.tibco.com/bpel/2007/extensions\"/>\r\n    </bpws:extensions>\r\n    <bpws:scope name=\"scope\">\r\n        <bpws:flow name=\"flow\">\r\n\t\t\t<bpws:links>\r\n\t\t\t\t<#list childInputLists.ConnectorDefinition as curConnectorDefinition>${curConnectorDefinition}</#list>\r\n\t\t\t</bpws:links>\r\n            <bpws:extensionActivity>\r\n                <tibex:receiveEvent createInstance=\"yes\"\r\n                    eventTimeout=\"60\" name=\"Timer\"\r\n                    tibex:xpdlId=\"3fbecba4-de7c-4af7-a8ee-e64c5a2cf0c4\"\r\n                    variable=\"Timer\" xmlns:tibex=\"http://www.tibco.com/bpel/2007/extensions\">\r\n                    <tibex:eventSource>\r\n                        <bwext:BWActivity\r\n                            activityTypeID=\"bw.generalactivities.timer\"\r\n                            version=\"6.0.0.001\"\r\n                            xmlns:activityconfig=\"http://tns.tibco.com/bw/model/activityconfig\"\r\n                            xmlns:bwext=\"http://tns.tibco.com/bw/model/core/bwext\"\r\n                            xmlns:generalactivities=\"http://ns.tibco.com/bw/palette/generalactivities\" xmlns:xsi=\"http://www.w3.org/2001/XMLSchema-instance\">\r\n                            <activityConfig>\r\n                                <properties name=\"config\" xsi:type=\"activityconfig:EMFProperty\">\r\n                                    <type href=\"http://ns.tibco.com/bw/palette/generalactivities#//Timer\"/>\r\n                                    <value\r\n                                    endTime=\"2019-04-20T06:36:52.584-0700\"\r\n                                    intervalUnit=\"Second\"\r\n                                    runOnce=\"true\"\r\n                                    startTime=\"2019-04-20T06:36:52.584-0700\"\r\n                                    timeInterval=\"1\" xsi:type=\"generalactivities:Timer\"/>\r\n                                </properties>\r\n                            </activityConfig>\r\n                        </bwext:BWActivity>\r\n                    </tibex:eventSource>\r\n                </tibex:receiveEvent>\r\n            </bpws:extensionActivity>\r\n            <#list childInputLists.ScopeDefinition as curScopeDefinition>${curScopeDefinition}</#list>\r\n        </bpws:flow>\r\n    </bpws:scope>\r\n</bpws:process>",
                "base64encoded": false
              },
              {
                "name": "pom",
                "codeTemplate": "ApplictionPOM",
                "base64encoded": false
              }
            ]
          },
          {
            "name": "CompensationServiceInvocation",
            "parameterGroupDefinitionList": [
              {
                "name": "StaffWare Exception Handler",
                "id": "StaffWareExceptionHandler",
                "parameterDefinitionList": [
                  {
                    "id": "formKey",
                    "type": "InputText",
                    "questionText": "Staffware form key",
                    "mandatory": true,
                    "inputText": {
                      "defaultValue": ""
                    }
                  },
                  {
                    "id": "formID",
                    "type": "InputText",
                    "questionText": "Staffware form ID",
                    "mandatory": true,
                    "inputText": {
                      "defaultValue": ""
                    }
                  }
                ]
              }
            ],
            "codeSnippetDefinitionList": [
              {
                "name": "BW6",
                "codeTemplate": "codeTemplate",
                "base64encoded": false
              },
              {
                "name": "pom",
                "codeTemplate": "codeTemplate",
                "base64encoded": false
              }
            ]
          },
          {
            "name": "CallBackServiceSOAP",
            "parameterGroupDefinitionList": [
              {
                "name": "Service",
                "id": "service",
                "parameterDefinitionList": [
                  {
                    "id": "endpoint",
                    "type": "InputText",
                    "questionText": "endpoint of the soap service to be used for the call back service",
                    "mandatory": true,
                    "inputText": {
                      "defaultValue": ""
                    }
                  },
                  {
                    "id": "port",
                    "type": "InputText",
                    "questionText": "Port to be used for the soap call back service",
                    "mandatory": true,
                    "inputText": {
                      "defaultValue": 8080
                    }
                  },
                  {
                    "id": "location",
                    "type": "InputText",
                    "questionText": "Location (resource) to be used for the call back SOAP service",
                    "mandatory": true,
                    "inputText": {
                      "defaultValue": ""
                    }
                  },
                  {
                    "id": "operation",
                    "type": "InputText",
                    "questionText": "SOAP operation to be used for the call back service",
                    "mandatory": true,
                    "inputText": {
                      "defaultValue": ""
                    }
                  },
                  {
                    "id": "WSDL",
                    "type": "InputText",
                    "questionText": "Provide the WSDL to be used for the call",
                    "mandatory": true,
                    "inputText": {
                      "defaultValue": ""
                    }
                  }
                ]
              }
            ],
            "codeSnippetDefinitionList": [
              {
                "name": "BW6",
                "codeTemplate": "codeTemplate",
                "base64encoded": false
              },
              {
                "name": "pom",
                "codeTemplate": "codeTemplate",
                "base64encoded": false
              }
            ]
          },
          {
            "name": "CallBackServiceREST",
            "parameterGroupDefinitionList": [
              {
                "name": "Service",
                "id": "service",
                "parameterDefinitionList": [
                  {
                    "id": "URL",
                    "type": "InputText",
                    "questionText": "URL to be used for the REST call back service",
                    "mandatory": true,
                    "inputText": {
                      "defaultValue": ""
                    }
                  },
                  {
                    "id": "port",
                    "type": "InputText",
                    "questionText": "Port to be used for the REST call back service",
                    "mandatory": true,
                    "inputText": {
                      "defaultValue": 8080
                    }
                  },
                  {
                    "id": "resource",
                    "type": "InputText",
                    "questionText": "Resource to be used for REST the call back service",
                    "mandatory": true,
                    "inputText": {
                      "defaultValue": ""
                    }
                  },
                  {
                    "id": "operation",
                    "type": "InputRadioButton",
                    "questionText": "REST operation (if applicable)",
                    "mandatory": true,
                    "inputRadioButton": {
                      "defaultValue": "PUT",
                      "options": [
                        "GET",
                        "PUT",
                        "POST"
                      ]
                    }
                  },
                  {
                    "id": "swagger",
                    "type": "InputText",
                    "questionText": "Provide the swagger to be used",
                    "mandatory": true,
                    "inputText": {
                      "defaultValue": ""
                    }
                  }
                ]
              }
            ],
            "codeSnippetDefinitionList": [
              {
                "name": "BW6",
                "codeTemplate": "codeTemplate",
                "base64encoded": false
              },
              {
                "name": "pom",
                "codeTemplate": "codeTemplate",
                "base64encoded": false
              }
            ]
          },
          {
            "name": "ServiceInvocationGroup",
            "parameterGroupDefinitionList": [
              {
                "name": "Generic",
                "id": "generic",
                "parameterDefinitionList": [
                  {
                    "id": "name",
                    "type": "InputText",
                    "questionText": "Name of the Service Invocation Group",
                    "mandatory": true,
                    "inputText": {
                      "defaultValue": ""
                    }
                  }
                ]
              }
            ],
            "codeSnippetDefinitionList": [
              {
                "name": "ScopeGraphical",
                "codeTemplate": "<children type=\"4018\">\r\n\t<children type=\"3018\">\r\n\t\t<children type=\"4020\">\r\n\t\t\t<children type=\"3020\">\r\n\t\t\t\t<children type=\"4005\">\r\n\t\t\t\t\t<children type=\"3007\">\r\n\t\t\t\t\t\t<styles xsi:type=\"notation:DrawerStyle\"/>\r\n\t\t\t\t\t\t<styles xsi:type=\"notation:SortingStyle\"/>\r\n\t\t\t\t\t\t<styles xsi:type=\"notation:FilteringStyle\"/>\r\n\t\t\t\t\t</children>\r\n\t\t\t\t\t<styles\r\n                                    fontName=\"Segoe UI\"\r\n                                    lineColor=\"0\" xsi:type=\"notation:ShapeStyle\"/>\r\n\t\t\t\t\t<styles\r\n                                    backgroundColor=\"16777215\"\r\n                                    gradientEndColor=\"50431\"\r\n                                    gradientStartColor=\"16777215\" xsi:type=\"bwnotation:BackgroundStyle\"/>\r\n\t\t\t\t\t<styles xsi:type=\"bwnotation:ResizingStyle\"/>\r\n\t\t\t\t\t<element href=\"//0/@process/@activity/@activity/@activities.1/@activity\"/>\r\n\t\t\t\t\t<layoutConstraint\r\n                                    height=\"100\"\r\n                                    width=\"400\"\r\n                                    x=\"2\"\r\n                                    xsi:type=\"notation:Bounds\" y=\"2\"/>\r\n\t\t\t\t</children>\r\n\t\t\t\t<styles xsi:type=\"notation:SortingStyle\"/>\r\n\t\t\t\t<styles xsi:type=\"notation:FilteringStyle\"/>\r\n\t\t\t</children>\r\n\t\t\t<styles\r\n                                    fontName=\"Segoe UI\"\r\n                                    lineColor=\"0\" xsi:type=\"notation:ShapeStyle\"/>\r\n\t\t\t<styles xsi:type=\"bwnotation:BackgroundStyle\"/>\r\n\t\t\t<styles xsi:type=\"bwnotation:ResizingStyle\"/>\r\n\t\t\t<element href=\"//0/@process/@activity/@activity/@activities.1\"/>\r\n\t\t\t<layoutConstraint\r\n                                    height=\"320\"\r\n                                    width=\"420\"\r\n                                    x=\"30\"\r\n                                    xsi:type=\"notation:Bounds\" y=\"20\"/>\r\n\t\t</children>\r\n\t\t<children type=\"4002\">\r\n\t\t\t<children type=\"4017\">\r\n\t\t\t\t<styles\r\n                                    fontName=\"Segoe UI\"\r\n                                    lineColor=\"0\" xsi:type=\"notation:ShapeStyle\"/>\r\n\t\t\t\t<layoutConstraint xsi:type=\"notation:Bounds\"/>\r\n\t\t\t</children>\r\n\t\t\t<children type=\"4017\">\r\n\t\t\t\t<styles\r\n                                    fontName=\"Segoe UI\"\r\n                                    lineColor=\"0\" xsi:type=\"notation:ShapeStyle\"/>\r\n\t\t\t\t<layoutConstraint xsi:type=\"notation:Bounds\"/>\r\n\t\t\t</children>\r\n\t\t\t<children type=\"4017\">\r\n\t\t\t\t<styles\r\n                                    fontName=\"Segoe UI\"\r\n                                    lineColor=\"0\" xsi:type=\"notation:ShapeStyle\"/>\r\n\t\t\t\t<layoutConstraint xsi:type=\"notation:Bounds\"/>\r\n\t\t\t</children>\r\n\t\t\t<children type=\"4017\">\r\n\t\t\t\t<styles\r\n                                    fontName=\"Segoe UI\"\r\n                                    lineColor=\"0\" xsi:type=\"notation:ShapeStyle\"/>\r\n\t\t\t\t<layoutConstraint xsi:type=\"notation:Bounds\"/>\r\n\t\t\t</children>\r\n\t\t\t<styles\r\n                                    fontName=\"Segoe UI\"\r\n                                    lineColor=\"0\" xsi:type=\"notation:ShapeStyle\"/>\r\n\t\t\t<styles\r\n                                    backgroundColor=\"16777215\"\r\n                                    gradientEndColor=\"50431\"\r\n                                    gradientStartColor=\"16777215\" xsi:type=\"bwnotation:BackgroundStyle\"/>\r\n\t\t\t<element href=\"//0/@process/@activity/@activity/@activities.1/@activity/@activities.0\"/>\r\n\t\t\t<layoutConstraint xsi:type=\"notation:Bounds\"/>\r\n\t\t</children>\r\n\t\t<children type=\"4002\">\r\n\t\t\t<children type=\"4017\">\r\n\t\t\t\t<styles\r\n                                    fontName=\"Segoe UI\"\r\n                                    lineColor=\"0\" xsi:type=\"notation:ShapeStyle\"/>\r\n\t\t\t\t<layoutConstraint xsi:type=\"notation:Bounds\"/>\r\n\t\t\t</children>\r\n\t\t\t<children type=\"4017\">\r\n\t\t\t\t<styles\r\n                                    fontName=\"Segoe UI\"\r\n                                    lineColor=\"0\" xsi:type=\"notation:ShapeStyle\"/>\r\n\t\t\t\t<layoutConstraint xsi:type=\"notation:Bounds\"/>\r\n\t\t\t</children>\r\n\t\t\t<children type=\"4017\">\r\n\t\t\t\t<styles\r\n                                    fontName=\"Segoe UI\"\r\n                                    lineColor=\"0\" xsi:type=\"notation:ShapeStyle\"/>\r\n\t\t\t\t<layoutConstraint xsi:type=\"notation:Bounds\"/>\r\n\t\t\t</children>\r\n\t\t\t<children type=\"4017\">\r\n\t\t\t\t<styles\r\n                                    fontName=\"Segoe UI\"\r\n                                    lineColor=\"0\" xsi:type=\"notation:ShapeStyle\"/>\r\n\t\t\t\t<layoutConstraint xsi:type=\"notation:Bounds\"/>\r\n\t\t\t</children>\r\n\t\t\t<styles\r\n                                    fontName=\"Segoe UI\"\r\n                                    lineColor=\"0\" xsi:type=\"notation:ShapeStyle\"/>\r\n\t\t\t<styles\r\n                                    backgroundColor=\"16777215\"\r\n                                    gradientEndColor=\"50431\"\r\n                                    gradientStartColor=\"16777215\" xsi:type=\"bwnotation:BackgroundStyle\"/>\r\n\t\t\t<element href=\"//0/@process/@activity/@activity/@activities.${(systemVariables.nodeTypeInstanceSeqNr+1)?c}/@activity/@activities.1\"/>\r\n\t\t\t<layoutConstraint xsi:type=\"notation:Bounds\"/>\r\n\t\t</children>\r\n\t\t<styles xsi:type=\"notation:SortingStyle\"/>\r\n\t\t<styles xsi:type=\"notation:FilteringStyle\"/>\r\n\t</children>\r\n\t<styles fontName=\"Segoe UI\"\r\n                                    lineColor=\"0\" xsi:type=\"notation:ShapeStyle\"/>\r\n\t<styles xsi:type=\"bwnotation:BackgroundStyle\"/>\r\n\t<styles xsi:type=\"bwnotation:ResizingStyle\"/>\r\n\t<element href=\"//0/@process/@activity/@activity/@activities.${(systemVariables.nodeTypeInstanceSeqNr+1)?c}\"/>\r\n\t<layoutConstraint\r\n                                    height=\"200\" width=\"400\"\r\n                                    x=\"${(150+systemVariables.nodeTypeInstanceSeqNr*400)?c}\"\r\n                                    xsi:type=\"notation:Bounds\" y=\"38\"/>\r\n</children>",
                "base64encoded": false
              },
              {
                "name": "ScopeDefinition",
                "codeTemplate": "<bpws:scope name=\"${generic_name}\" tibex:group=\"none\" tibex:xpdlId=\"${function.uuid()}\">\r\n\t<#if systemVariables.nodeInstanceSequenceNr gt 1>\r\n\t<bpws:targets>\r\n\t\t<bpws:target linkName=\"${function.getPredecessorVariable(\"generic\",\"name\")}To${generic_name}\"/>\r\n    </bpws:targets>\r\n\t</#if>\r\n\t<#if systemVariables.nodeInstanceSequenceNr gt 0 && function.hasSuccessor()>\r\n    <bpws:sources>\r\n\t\t<bpws:source linkName=\"${generic_name}To${function.getSuccessorVariable(\"generic\",\"name\")}\"/>\r\n    </bpws:sources>\r\n\t</#if>\r\n    <bpws:flow name=\"flow${(systemVariables.nodeTypeInstanceSeqNr+1)?c}\">\r\n\t\t<bpws:links/>\r\n        <bpws:empty name=\"GroupStart${(systemVariables.nodeTypeInstanceSeqNr+1)?c}\" tibex:group=\"groupStart\" tibex:xpdlId=\"${function.uuid()}\"/>\r\n\t\t<bpws:empty name=\"GroupEnd${(systemVariables.nodeTypeInstanceSeqNr+1)?c}\" tibex:group=\"groupEnd\" tibex:xpdlId=\"${function.uuid()}\"/>\r\n    </bpws:flow>\r\n</bpws:scope>",
                "base64encoded": false
              },
              {
                "name": "ConnectorDefinition",
                "codeTemplate": "<#if systemVariables.nodeInstanceSequenceNr gt 1>\r\n  <bpws:link name=\"${function.getPredecessorVariable(\"generic\",\"name\")}To${generic_name}\" tibex:linkType=\"SUCCESS\"/>\r\n</#if>",
                "base64encoded": false
              },
              {
                "name": "ConnectorGraphical",
                "codeTemplate": "<#if systemVariables.nodeInstanceSequenceNr gt 0>\r\n        <edges\r\n            source=\"//@children.0/@children.4/@children.0/@children.0/@children.0/@children.0/@children.0/@children.0/@children.${(systemVariables.nodeInstanceSequenceNr-1)?c}\"\r\n            target=\"//@children.0/@children.4/@children.0/@children.0/@children.0/@children.0/@children.0/@children.0/@children.${(systemVariables.nodeInstanceSequenceNr)?c}\" type=\"4006\">\r\n            <children type=\"6002\">\r\n                <layoutConstraint xsi:type=\"notation:Location\" y=\"40\"/>\r\n            </children>\r\n            <styles lineColor=\"0\" xsi:type=\"notation:ConnectorStyle\"/>\r\n            <styles fontName=\"Segoe UI\" xsi:type=\"notation:FontStyle\"/>\r\n            <element href=\"//0/@process/@activity/@activity/@links/@children.0\"/>\r\n            <bendpoints points=\"[25, 5, -242, -45]$[95, 18, -172, -32]\" xsi:type=\"notation:RelativeBendpoints\"/>\r\n        </edges>\r\n</#if>",
                "base64encoded": false
              }
            ]
          }
        ]
      },
      {
        "name": "GenericServices",
        "operationDefinitionList": [
          {
            "name": "SOAPService",
            "parameterGroupDefinitionList": [
              {
                "name": "Service",
                "id": "service",
                "parameterDefinitionList": [
                  {
                    "id": "endpoint",
                    "type": "InputText",
                    "questionText": "Provide the endpoint URL of the SOAP instance",
                    "mandatory": true,
                    "inputText": {
                      "defaultValue": ""
                    }
                  },
                  {
                    "id": "port",
                    "type": "InputText",
                    "questionText": "Provide the SOAP port",
                    "mandatory": true,
                    "inputText": {
                      "defaultValue": 8080
                    }
                  },
                  {
                    "id": "location",
                    "type": "InputText",
                    "questionText": "Provide the SOAP location (resource)",
                    "mandatory": true,
                    "inputText": {
                      "defaultValue": ""
                    }
                  },
                  {
                    "id": "operationName",
                    "type": "InputText",
                    "questionText": "Provide the SOAP operation name to be called",
                    "mandatory": true,
                    "inputText": {
                      "defaultValue": ""
                    }
                  },
                  {
                    "id": "WSDL",
                    "type": "InputText",
                    "questionText": "Provide the SOAP WSDL",
                    "mandatory": true,
                    "inputText": {
                      "defaultValue": ""
                    }
                  }
                ]
              }
            ],
            "codeSnippetDefinitionList": [
              {
                "name": "BW6",
                "codeTemplate": "codeTemplate",
                "base64encoded": false
              },
              {
                "name": "pom",
                "codeTemplate": "codeTemplate",
                "base64encoded": false
              }
            ]
          },
          {
            "name": "RESTService",
            "parameterGroupDefinitionList": [
              {
                "name": "Service",
                "id": "service",
                "parameterDefinitionList": [
                  {
                    "id": "URL",
                    "type": "InputText",
                    "questionText": "Provide the URL of the REST service",
                    "mandatory": true,
                    "inputText": {
                      "defaultValue": ""
                    }
                  },
                  {
                    "id": "port",
                    "type": "InputText",
                    "questionText": "Provide the REST port",
                    "mandatory": true,
                    "inputText": {
                      "defaultValue": 8080
                    }
                  },
                  {
                    "id": "resource",
                    "type": "InputText",
                    "questionText": "Provide the REST resource",
                    "mandatory": true,
                    "inputText": {
                      "defaultValue": ""
                    }
                  },
                  {
                    "id": "operation",
                    "type": "InputRadioButton",
                    "questionText": "Provide the REST operation to be used",
                    "mandatory": true,
                    "inputRadioButton": {
                      "defaultValue": "GET",
                      "options": [
                        "GET",
                        "PUT",
                        "POST"
                      ]
                    }
                  }
                ]
              }
            ],
            "codeSnippetDefinitionList": [
              {
                "name": "BW6",
                "codeTemplate": "codeTemplate",
                "base64encoded": false
              },
              {
                "name": "pom",
                "codeTemplate": "codeTemplate",
                "base64encoded": false
              }
            ]
          }
        ]
      }
    ],
    "rootNodeDefinition": {
      "name": "Application",
      "minInstances": 1,
      "maxInstances": 1,
      "tagDefinitionList": [
        {
          "tagKey": "string",
          "tagValue": "string"
        }
      ],
      "availableServiceDefinitionList": [
        {
          "serviceName": "NodeServices",
          "availableOperationDefinitionList": [
            {
              "operationName": "Application",
              "codeSnippetDestinationList": [
                {
                  "codeSnippetName": "BW6",
                  "destinationFileID": "BW6",
                  "parentResultTarget": "SingleItem",
                  "consolidatedResultTarget": "SingleItem",
                  "listName": "string"
                }
              ]
            }
          ]
        }
      ],
      "childNodeDefinitionList": [
        {
          "name": "ServiceInvocationGroup",
          "minInstances": 0,
          "maxInstances": -1,
          "tagDefinitionList": [
            {
              "tagKey": "string",
              "tagValue": "string"
            }
          ],
          "availableServiceDefinitionList": [
            {
              "serviceName": "NodeServices",
              "availableOperationDefinitionList": [
                {
                  "operationName": "ServiceInvocationGroup",
                  "codeSnippetDestinationList": [
                    {
                      "codeSnippetName": "ScopeGraphical",
                      "destinationFileID": "BW6",
                      "parentResultTarget": "ListItem",
                      "consolidatedResultTarget": "ListItem",
                      "listName": "ScopeGraphical"
                    },
                    {
                      "codeSnippetName": "ScopeDefinition",
                      "destinationFileID": "BW6",
                      "parentResultTarget": "ListItem",
                      "consolidatedResultTarget": "ListItem",
                      "listName": "ScopeDefinition"
                    },
                    {
                      "codeSnippetName": "ConnectorDefinition",
                      "destinationFileID": "BW6",
                      "parentResultTarget": "ListItem",
                      "consolidatedResultTarget": "ListItem",
                      "listName": "ConnectorDefinition"
                    },
                    {
                      "codeSnippetName": "ConnectorGraphical",
                      "destinationFileID": "BW6",
                      "parentResultTarget": "ListItem",
                      "consolidatedResultTarget": "ListItem",
                      "listName": "ConnectorGraphical"
                    }
                  ]
                }
              ]
            }
          ],
          "childNodeDefinitionList": [
            {
              "name": "ServiceInvocation",
              "minInstances": 0,
              "maxInstances": -1,
              "tagDefinitionList": [
                {
                  "tagKey": "string",
                  "tagValue": "string"
                }
              ],
              "availableServiceDefinitionList": [
                {
                  "serviceName": "RequestStore",
                  "availableOperationDefinitionList": [
                    {
                      "operationName": "CreateRecord",
                      "codeSnippetDestinationList": [
                        {
                          "codeSnippetName": "BW6",
                          "destinationFileID": "BW6",
                          "parentResultTarget": "SingleItem",
                          "consolidatedResultTarget": "SingleItem",
                          "listName": "string"
                        }
                      ]
                    },
                    {
                      "operationName": "GetRecord",
                      "codeSnippetDestinationList": [
                        {
                          "codeSnippetName": "BW6",
                          "destinationFileID": "BW6",
                          "parentResultTarget": "SingleItem",
                          "consolidatedResultTarget": "SingleItem",
                          "listName": "string"
                        }
                      ]
                    }
                  ]
                },
                {
                  "serviceName": "CRM",
                  "availableOperationDefinitionList": [
                    {
                      "operationName": "CreateCase",
                      "codeSnippetDestinationList": [
                        {
                          "codeSnippetName": "BW6",
                          "destinationFileID": "BW6",
                          "parentResultTarget": "SingleItem",
                          "consolidatedResultTarget": "SingleItem",
                          "listName": "string"
                        }
                      ]
                    },
                    {
                      "operationName": "UpdateCase",
                      "codeSnippetDestinationList": [
                        {
                          "codeSnippetName": "BW6",
                          "destinationFileID": "BW6",
                          "parentResultTarget": "SingleItem",
                          "consolidatedResultTarget": "SingleItem",
                          "listName": "string"
                        }
                      ]
                    },
                    {
                      "operationName": "DeleteCase",
                      "codeSnippetDestinationList": [
                        {
                          "codeSnippetName": "BW6",
                          "destinationFileID": "BW6",
                          "parentResultTarget": "SingleItem",
                          "consolidatedResultTarget": "SingleItem",
                          "listName": "string"
                        }
                      ]
                    },
                    {
                      "operationName": "UpdateCase",
                      "codeSnippetDestinationList": [
                        {
                          "codeSnippetName": "BW6",
                          "destinationFileID": "BW6",
                          "parentResultTarget": "SingleItem",
                          "consolidatedResultTarget": "SingleItem",
                          "listName": "string"
                        }
                      ]
                    },
                    {
                      "operationName": "SetStatus",
                      "codeSnippetDestinationList": [
                        {
                          "codeSnippetName": "BW6",
                          "destinationFileID": "BW6",
                          "parentResultTarget": "SingleItem",
                          "consolidatedResultTarget": "SingleItem",
                          "listName": "string"
                        }
                      ]
                    }
                  ]
                },
                {
                  "serviceName": "TrackAndTrace",
                  "availableOperationDefinitionList": [
                    {
                      "operationName": "CreateRequest",
                      "codeSnippetDestinationList": [
                        {
                          "codeSnippetName": "BW6",
                          "destinationFileID": "BW6",
                          "parentResultTarget": "SingleItem",
                          "consolidatedResultTarget": "SingleItem",
                          "listName": "string"
                        }
                      ]
                    },
                    {
                      "operationName": "AddStep",
                      "codeSnippetDestinationList": [
                        {
                          "codeSnippetName": "BW6",
                          "destinationFileID": "BW6",
                          "parentResultTarget": "SingleItem",
                          "consolidatedResultTarget": "SingleItem",
                          "listName": "string"
                        }
                      ]
                    },
                    {
                      "operationName": "CloseRequest",
                      "codeSnippetDestinationList": [
                        {
                          "codeSnippetName": "BW6",
                          "destinationFileID": "BW6",
                          "parentResultTarget": "SingleItem",
                          "consolidatedResultTarget": "SingleItem",
                          "listName": "string"
                        }
                      ]
                    }
                  ]
                },
                {
                  "serviceName": "GenericServices",
                  "availableOperationDefinitionList": [
                    {
                      "operationName": "SOAPService",
                      "codeSnippetDestinationList": [
                        {
                          "codeSnippetName": "BW6",
                          "destinationFileID": "BW6",
                          "parentResultTarget": "SingleItem",
                          "consolidatedResultTarget": "SingleItem",
                          "listName": "string"
                        }
                      ]
                    },
                    {
                      "operationName": "RESTService",
                      "codeSnippetDestinationList": [
                        {
                          "codeSnippetName": "BW6",
                          "destinationFileID": "BW6",
                          "parentResultTarget": "SingleItem",
                          "consolidatedResultTarget": "SingleItem",
                          "listName": "string"
                        }
                      ]
                    }
                  ]
                }
              ]
            }
          ]
        },
        {
          "name": "CallBackService",
          "minInstances": 1,
          "maxInstances": 1,
          "tagDefinitionList": [
            {
              "tagKey": "string",
              "tagValue": "string"
            }
          ],
          "availableServiceDefinitionList": [
            {
              "serviceName": "NodeServices",
              "availableOperationDefinitionList": [
                {
                  "operationName": "CallBackServiceSOAP",
                  "codeSnippetDestinationList": [
                    {
                      "codeSnippetName": "BW6",
                      "destinationFileID": "BW6",
                      "parentResultTarget": "SingleItem",
                      "consolidatedResultTarget": "SingleItem",
                      "listName": "string"
                    }
                  ]
                },
                {
                  "operationName": "CallBackServiceREST",
                  "codeSnippetDestinationList": [
                    {
                      "codeSnippetName": "BW6",
                      "destinationFileID": "BW6",
                      "parentResultTarget": "SingleItem",
                      "consolidatedResultTarget": "SingleItem",
                      "listName": "string"
                    }
                  ]
                }
              ]
            }
          ]
        },
        {
          "name": "CompensationServiceInvocation",
          "minInstances": 0,
          "maxInstances": 1,
          "tagDefinitionList": [
            {
              "tagKey": "string",
              "tagValue": "string"
            }
          ],
          "availableServiceDefinitionList": [
            {
              "serviceName": "NodeServices",
              "availableOperationDefinitionList": [
                {
                  "operationName": "CompensationServiceInvocation",
                  "codeSnippetDestinationList": [
                    {
                      "codeSnippetName": "BW6",
                      "destinationFileID": "BW6",
                      "parentResultTarget": "SingleItem",
                      "consolidatedResultTarget": "SingleItem",
                      "listName": "string"
                    }
                  ]
                }
              ]
            }
          ]
        }
      ],
      "newFilesList": [
        {
          "fileID": "BW6",
          "fileName": "MainProcess.bwp",
          "pathName": "/main"
        },
        {
          "fileID": "POM",
          "fileName": "pom.xml",
          "pathName": "/pom"
        }
      ]
    },
    "actionList": [
      {
        "actionID": "calculateRunTime",
        "actionType": "RESTAction",
        "RESTAction": {
          "URL": "http://WIN-1UQ8G1NVJPI:8080/actionhandler"
        }
      },
      {
        "actionID": "fetchSomeData",
        "actionType": "RESTAction",
        "RESTAction": {
          "URL": "localhost"
        }
      }
    ]
  }
}